VerilogDM_214/4 wheelers/VerilogDM_106_214_4w_entry.vcd
$date
	Tue Nov 07 20:12:01 2017
$end
$version
	Icarus Verilog
$end
$timescale
	1s
$end
$scope module VerilogDM_106_214_test $end
$var wire 2 ! q [1:0] $end
$var wire 4 " num_entry [3:0] $end
$var wire 1 # gate_open $end
$var wire 1 $ gate_closed $end
$var wire 1 % chance_over $end
$var reg 1 & buzzer $end
$var reg 1 ' entry $end
$var reg 1 ( exit $end
$var reg 20 ) password [20:1] $end
$var reg 1 * reset1 $end
$scope module test $end
$var wire 1 + and_of_pass_out_c1_or $end
$var wire 1 & buzzer $end
$var wire 1 , c1_or $end
$var wire 1 % chance_over $end
$var wire 1 ' entry $end
$var wire 1 ( exit $end
$var wire 1 $ gate_closed $end
$var wire 1 # gate_open $end
$var wire 1 - pass_out_not $end
$var wire 20 . password [20:1] $end
$var wire 1 * reset1 $end
$var wire 2 / q [1:0] $end
$var wire 1 0 pass_out $end
$var wire 4 1 num_entry [3:0] $end
$scope module c1_bit0 $end
$var wire 1 2 clk $end
$var wire 1 3 rst $end
$var wire 1 4 t $end
$var reg 1 5 q $end
$upscope $end
$scope module c1_bit1 $end
$var wire 1 & clk $end
$var wire 1 * rst $end
$var wire 1 6 t $end
$var reg 1 7 q $end
$upscope $end
$scope module c2_bit0 $end
$var wire 1 0 clk $end
$var wire 1 * rst $end
$var wire 1 8 t $end
$var reg 1 9 q $end
$upscope $end
$scope module c2_bit1 $end
$var wire 1 : clk $end
$var wire 1 * rst $end
$var wire 1 ; t $end
$var reg 1 < q $end
$upscope $end
$scope module c2_bit2 $end
$var wire 1 = clk $end
$var wire 1 * rst $end
$var wire 1 > t $end
$var reg 1 ? q $end
$upscope $end
$scope module c2_bit3 $end
$var wire 1 @ clk $end
$var wire 1 * rst $end
$var wire 1 A t $end
$var reg 1 B q $end
$upscope $end
$upscope $end
$upscope $end
$enddefinitions $end
#0
$dumpvars
0B
1A
1@
0?
1>
1=
0<
1;
1:
09
18
07
16
05
14
03
12
b0 1
00
b0 /
b0 .
1-
0,
0+
1*
b0 )
x(
x'
1&
1%
1$
0#
b0 "
b0 !
$end
#5
0&
#15
0$
0%
1#
1+
0:
02
1,
b1 "
b1 1
19
b1 !
b1 /
17
0-
10
0*
b11000000111001 )
b11000000111001 .
1&
0(
1'
#20
1$
0#
0+
1-
00
0&
#30
0=
1<
15
0%
1:
12
1,
b10 "
b10 1
09
b10 !
b10 /
07
0$
1#
1+
0-
10
b1111110100001001 )
b1111110100001001 .
1&
#35
1$
0#
0+
1-
00
0&
#45
0:
02
b11 "
b11 1
19
b11 !
b11 /
17
0$
1#
1+
0-
10
b10010001001010001 )
b10010001001010001 .
1&
#50
1$
0#
0+
1-
00
0&
#65
0@
1?
1%
1=
0,
0<
05
1:
12
b100 "
b100 1
09
b0 !
b0 /
07
1$
0#
0+
1-
00
b1010101010011101 )
b1010101010011101 .
1&
#70
0&
#80
0%
02
1,
b1 !
b1 /
17
b1011010000001000 )
b1011010000001000 .
1&
#85
0&
#95
15
0%
0:
12
1,
b101 "
b101 1
19
b10 !
b10 /
07
0$
1#
1+
0-
10
b11000000111001 )
b11000000111001 .
1&
#100
1$
0#
0+
1-
00
0&
#110
02
b11 !
b11 /
17
1(
0'
b0 )
b0 .
1&
#115
0&
#130
1%
0=
0,
1<
05
1:
12
b110 "
b110 1
09
b0 !
b0 /
07
1$
0#
0+
0-
10
b1111110100001001 )
b1111110100001001 .
1&
1'
0(
#135
1-
00
0&
